{
  "title": "We are looking to provide fast -driven cloud solutions to the open source community",
  "description": "#Lorem Ipsum Dolor Sit Amet Consectetur Adipisicing Elit Sed Do Eiusmod Tempor Incididunt Ut Labore Et Dolore Magna Ali. #Lorem Ipsum Dolor Sit Amet Consectetur Adipisicing Elit Sed Do Eiusmod Tempor. #Lorem Ipsum Dolor Sit Amet Consectetur Adipisicing Elit Sed Do Eiusmod Tempor Incididunt Ut Labore Et Dolore Magna Ali"
}
