{
  "field_title": "Clear Technologies are  cloud oriented open source projects for Intel Architecture.",
  "field_description": "",
  "field_subheader": "OPEN SOURCE PROJECTS FOR INTEL ARCHITECTURE",
  "field_call_action": "Choose your project",
  "field_support_image": "../images/structure/clearlinux.png",
  "button": {
    "title": "Download latest releases",
    "ico": "fa-arrow-down",
    "link": "http://clearlinux.org"
  },
  "link": {
    "title": "Latest releases added 24/04/17.",
    "title_link": "Other releases",
    "link": "http://clearlinux.org"
  }
}
